<svg xmlns="http://www.w3.org/2000/svg" width="109" height="31.5" viewBox="0 0 109 31.5">
  <defs>
    <style>
      .cls-1 {
        fill: none;
        stroke: #000;
        stroke-width: 1px;
        fill-rule: evenodd;
        opacity: 0.21;
      }
    </style>
  </defs>
  <path id="arc.svg" class="cls-1" d="M1327.89,570c21.08,40.653,78.98,32.855,106.56,14.573" transform="translate(-1326.5 -569.5)"/>
</svg>
